%YAML 1.1
%TAG !u! tag:unity3d.com,2011:
--- !u!21 &2100000
Material:
  serializedVersion: 6
  m_ObjectHideFlags: 0
  m_CorrespondingSourceObject: {fileID: 0}
  m_PrefabInternal: {fileID: 0}
  m_Name: Dirt_Red
  m_Shader: {fileID: 4800000, guid: 2f5fc406b9b80fb4387bffba82ebbe69, type: 3}
  m_ShaderKeywords: BOOLEAN_8C3F0919_ON BOOLEAN_CB3ADE1F_ON _GLOSSINESS_FROM_BASE_ALPHA
    _SPECULAR_COLOR
  m_LightmapFlags: 4
  m_EnableInstancingVariants: 0
  m_DoubleSidedGI: 0
  m_CustomRenderQueue: -1
  stringTagMap: {}
  disabledShaderPasses: []
  m_SavedProperties:
    serializedVersion: 3
    m_TexEnvs:
    - Texture2D_2AE0E5A9:
        m_Texture: {fileID: 2800000, guid: 0600fd150db07fc4cae4314a3c17eb15, type: 3}
        m_Scale: {x: 1, y: 1}
        m_Offset: {x: 0, y: 0}
    - Texture2D_7254517C:
        m_Texture: {fileID: 0}
        m_Scale: {x: 1, y: 1}
        m_Offset: {x: 0, y: 0}
    - Texture2D_B5FDB01D:
        m_Texture: {fileID: 2800000, guid: 2df5546dea986e549bb2c508c58deb59, type: 3}
        m_Scale: {x: 1, y: 1}
        m_Offset: {x: 0, y: 0}
    - Texture2D_E252D9B9:
        m_Texture: {fileID: 0}
        m_Scale: {x: 1, y: 1}
        m_Offset: {x: 0, y: 0}
    - Texture2D_E56B472:
        m_Texture: {fileID: 0}
        m_Scale: {x: 1, y: 1}
        m_Offset: {x: 0, y: 0}
    - _Albedo:
        m_Texture: {fileID: 0}
        m_Scale: {x: 1, y: 1}
        m_Offset: {x: 0, y: 0}
    - _BumpMap:
        m_Texture: {fileID: 0}
        m_Scale: {x: 1, y: 1}
        m_Offset: {x: 0, y: 0}
    - _DetailAlbedoMap:
        m_Texture: {fileID: 0}
        m_Scale: {x: 1, y: 1}
        m_Offset: {x: 0, y: 0}
    - _DetailMask:
        m_Texture: {fileID: 0}
        m_Scale: {x: 1, y: 1}
        m_Offset: {x: 0, y: 0}
    - _DetailNormalMap:
        m_Texture: {fileID: 0}
        m_Scale: {x: 1, y: 1}
        m_Offset: {x: 0, y: 0}
    - _EmissionMap:
        m_Texture: {fileID: 0}
        m_Scale: {x: 1, y: 1}
        m_Offset: {x: 0, y: 0}
    - _MainTex:
        m_Texture: {fileID: 2800000, guid: 2df5546dea986e549bb2c508c58deb59, type: 3}
        m_Scale: {x: 1, y: 1}
        m_Offset: {x: 0, y: 0}
    - _MetallicGlossMap:
        m_Texture: {fileID: 0}
        m_Scale: {x: 1, y: 1}
        m_Offset: {x: 0, y: 0}
    - _OcclusionMap:
        m_Texture: {fileID: 0}
        m_Scale: {x: 1, y: 1}
        m_Offset: {x: 0, y: 0}
    - _ParallaxMap:
        m_Texture: {fileID: 0}
        m_Scale: {x: 1, y: 1}
        m_Offset: {x: 0, y: 0}
    - _SampleTexture2D_48EBEA96_Texture:
        m_Texture: {fileID: 0}
        m_Scale: {x: 1, y: 1}
        m_Offset: {x: 0, y: 0}
    - _SpecGlossMap:
        m_Texture: {fileID: 0}
        m_Scale: {x: 1, y: 1}
        m_Offset: {x: 0, y: 0}
    m_Floats:
    - Boolean_1C5F59C9: 0
    - Boolean_3E63768F: 0
    - Boolean_502B7F59: 0
    - Boolean_5A3BBF45: 0
    - Boolean_8C3F0919: 1
    - Boolean_CB3ADE1F: 1
    - Vector1_162CC5A5: 0
    - Vector1_25EC32F0: 0
    - Vector1_36B66B54: 1
    - Vector1_401C562B: 0
    - Vector1_4633FC98: 150
    - Vector1_6EEAA6F7: 0
    - Vector1_79AD38D3: 0
    - Vector1_90E4A6D1: 1
    - Vector1_9A8DB970: -20
    - Vector1_A8703D95: 0
    - Vector1_B3A9C87: 0
    - Vector1_D6674A6C: 0
    - _Alpha: 0.4
    - _AlphaClip: 0
    - _Blend: 0
    - _BumpScale: 1
    - _Cull: 2
    - _Cutoff: 0.5
    - _DetailNormalMapScale: 1
    - _DstBlend: 0
    - _GlossMapScale: 1
    - _Glossiness: 0
    - _GlossinessSource: 0
    - _GlossyReflections: 0
    - _Metallic: 0
    - _Mode: 0
    - _OcclusionStrength: 1
    - _Parallax: 0.02
    - _Shininess: 0.5
    - _SmoothnessTextureChannel: 0
    - _SpecSource: 0
    - _SpecularHighlights: 0
    - _SrcBlend: 1
    - _Surface: 0
    - _UVSec: 0
    - _WorkflowMode: 1
    - _ZWrite: 1
    m_Colors:
    - Color_412A046F: {r: 1, g: 1, b: 1, a: 0}
    - Color_6A0F145F: {r: 0, g: 0, b: 0, a: 0}
    - Color_B8611515: {r: 1, g: 1, b: 1, a: 0}
    - Color_C7E9DB98: {r: 0, g: 0, b: 0, a: 0}
    - Color_F646F8BA: {r: 0.5566038, g: 0.23366857, b: 0.23366857, a: 0}
    - Vector2_A43D293B: {r: 0, g: 0, b: 0, a: 0}
    - Vector2_CF7900C3: {r: 0.1, g: 0.1, b: 0, a: 0}
    - _Color: {r: 0.588, g: 0.588, b: 0.588, a: 1}
    - _EmissionColor: {r: 0, g: 0, b: 0, a: 0}
    - _SpecColor: {r: 0.2, g: 0.2, b: 0.2, a: 1}
    - _Tint: {r: 0.6, g: 0, b: 0, a: 1}
