%YAML 1.1
%TAG !u! tag:unity3d.com,2011:
--- !u!114 &11400000
MonoBehaviour:
  m_ObjectHideFlags: 0
  m_CorrespondingSourceObject: {fileID: 0}
  m_PrefabInternal: {fileID: 0}
  m_GameObject: {fileID: 0}
  m_Enabled: 1
  m_EditorHideFlags: 0
  m_Script: {fileID: 11500000, guid: a27bebc098d607f449572614775778b6, type: 3}
  m_Name: 8155E5CF-F4E2-4F11-B523-F15E3C026430
  m_EditorClassIdentifier: 
  objectName: EndLevelFeedback
  id: 2368197235
  guid: 8155E5CF-F4E2-4F11-B523-F15E3C026430
