%YAML 1.1
%TAG !u! tag:unity3d.com,2011:
--- !u!21 &2100000
Material:
  serializedVersion: 6
  m_ObjectHideFlags: 0
  m_CorrespondingSourceObject: {fileID: 0}
  m_PrefabInternal: {fileID: 0}
  m_Name: lambert1
  m_Shader: {fileID: 4800000, guid: 7b74f2b95df04b147a6d856de30a9b80, type: 3}
  m_ShaderKeywords: BOOLEAN_3E63768F_ON BOOLEAN_8C3F0919_ON BOOLEAN_CB3ADE1F_ON _USEFOG_ON
  m_LightmapFlags: 4
  m_EnableInstancingVariants: 0
  m_DoubleSidedGI: 0
  m_CustomRenderQueue: -1
  stringTagMap: {}
  disabledShaderPasses: []
  m_SavedProperties:
    serializedVersion: 3
    m_TexEnvs:
    - Texture2D_2AE0E5A9:
        m_Texture: {fileID: 2800000, guid: 0600fd150db07fc4cae4314a3c17eb15, type: 3}
        m_Scale: {x: 1, y: 1}
        m_Offset: {x: 0, y: 0}
    - Texture2D_7254517C:
        m_Texture: {fileID: 0}
        m_Scale: {x: 1, y: 1}
        m_Offset: {x: 0, y: 0}
    - Texture2D_B5FDB01D:
        m_Texture: {fileID: 2800000, guid: 82b0a0ef18183e54f86dce6510023f3a, type: 3}
        m_Scale: {x: 1, y: 1}
        m_Offset: {x: 0, y: 0}
    - Texture2D_E252D9B9:
        m_Texture: {fileID: 0}
        m_Scale: {x: 1, y: 1}
        m_Offset: {x: 0, y: 0}
    - Texture2D_E56B472:
        m_Texture: {fileID: 0}
        m_Scale: {x: 1, y: 1}
        m_Offset: {x: 0, y: 0}
    - _Albedo:
        m_Texture: {fileID: 0}
        m_Scale: {x: 1, y: 1}
        m_Offset: {x: 0, y: 0}
    - _AlphaClipMap:
        m_Texture: {fileID: 0}
        m_Scale: {x: 1, y: 1}
        m_Offset: {x: 0, y: 0}
    - _BumpMap:
        m_Texture: {fileID: 0}
        m_Scale: {x: 1, y: 1}
        m_Offset: {x: 0, y: 0}
    - _DetailAlbedoMap:
        m_Texture: {fileID: 0}
        m_Scale: {x: 1, y: 1}
        m_Offset: {x: 0, y: 0}
    - _DetailMask:
        m_Texture: {fileID: 0}
        m_Scale: {x: 1, y: 1}
        m_Offset: {x: 0, y: 0}
    - _DetailNormalMap:
        m_Texture: {fileID: 0}
        m_Scale: {x: 1, y: 1}
        m_Offset: {x: 0, y: 0}
    - _EmissionMap:
        m_Texture: {fileID: 0}
        m_Scale: {x: 1, y: 1}
        m_Offset: {x: 0, y: 0}
    - _HeightFogMap:
        m_Texture: {fileID: 0}
        m_Scale: {x: 1, y: 1}
        m_Offset: {x: 0, y: 0}
    - _MainTex:
        m_Texture: {fileID: 2800000, guid: 41428431f6325144f8bdaed0056f5ac6, type: 3}
        m_Scale: {x: 1, y: 1}
        m_Offset: {x: 0, y: 0}
    - _MetallicGlossMap:
        m_Texture: {fileID: 0}
        m_Scale: {x: 1, y: 1}
        m_Offset: {x: 0, y: 0}
    - _OcclusionMap:
        m_Texture: {fileID: 0}
        m_Scale: {x: 1, y: 1}
        m_Offset: {x: 0, y: 0}
    - _ParallaxMap:
        m_Texture: {fileID: 0}
        m_Scale: {x: 1, y: 1}
        m_Offset: {x: 0, y: 0}
    - _SampleTexture2D_48EBEA96_Texture:
        m_Texture: {fileID: 0}
        m_Scale: {x: 1, y: 1}
        m_Offset: {x: 0, y: 0}
    - _SpecGlossMap:
        m_Texture: {fileID: 0}
        m_Scale: {x: 1, y: 1}
        m_Offset: {x: 0, y: 0}
    m_Floats:
    - Boolean_1C5F59C9: 0
    - Boolean_3E63768F: 1
    - Boolean_502B7F59: 0
    - Boolean_5A3BBF45: 0
    - Boolean_8C3F0919: 1
    - Boolean_CB3ADE1F: 1
    - Vector1_14D7EA13: 5
    - Vector1_162CC5A5: 0
    - Vector1_36B66B54: 1
    - Vector1_401C562B: 0
    - Vector1_4633FC98: 187.78
    - Vector1_6EEAA6F7: 1
    - Vector1_79AD38D3: 0
    - Vector1_9A8DB970: -15.68
    - Vector1_A8703D95: 1
    - Vector1_B3A9C87: -6.8
    - Vector1_D6674A6C: 0.5
    - _Alpha: 1
    - _AlphaClip: 0
    - _AlphaClipMapSize: 0.2
    - _AlphaClipThreshold: 0.75
    - _Blend: 0
    - _BumpScale: 1
    - _Cull: 2
    - _Cutoff: 0.5
    - _DetailNormalMapScale: 1
    - _DstBlend: 0
    - _EmissionMultiplier: 1
    - _FogEnd: 150
    - _FogStart: 0
    - _GlossMapScale: 1
    - _Glossiness: 0
    - _GlossyReflections: 1
    - _HeightFogEnd: 10
    - _HeightFogStart: 0
    - _Metallic: 0
    - _Mode: 0
    - _NoiseIntensity: 0.1
    - _NoiseThreshold: 0.2
    - _OcclusionStrength: 1
    - _Parallax: 0.02
    - _SmoothnessTextureChannel: 0
    - _SpecularHighlights: 1
    - _SpecularSize: 0.8
    - _SpecularStrength: 0.5
    - _SrcBlend: 1
    - _Surface: 0
    - _UVSec: 0
    - _UseAlphaChannel: 0
    - _UseFog: 1
    - _UseHeightFog: 0
    - _UseHeightFogSprite: 0
    - _UseNoiseOnTexture: 0
    - _WorkflowMode: 1
    - _ZWrite: 1
    m_Colors:
    - Color_412A046F: {r: 0.11320752, g: 0.11320752, b: 0.11320752, a: 1}
    - Color_6A0F145F: {r: 0, g: 0, b: 0, a: 0}
    - Color_C7E9DB98: {r: 0, g: 0, b: 0, a: 0}
    - Vector2_A43D293B: {r: 0, g: 0, b: 0, a: 0}
    - Vector2_CF7900C3: {r: 0.1, g: 0.1, b: 0, a: 0}
    - _Color: {r: 0.4, g: 0.4, b: 0.4, a: 1}
    - _EmissionColor: {r: 0, g: 0, b: 0, a: 0}
    - _FogColour: {r: 0, g: 0, b: 0, a: 0}
    - _HeightFogColour: {r: 0, g: 0, b: 0, a: 0}
    - _HeightFogMapOffset: {r: 0, g: 0, b: 0, a: 0}
    - _HeightFogMapTiling: {r: 1, g: 1, b: 0, a: 0}
    - _NoiseColor: {r: 0.1081346, g: 0.8490566, b: 0.5416298, a: 0}
    - _SpecColor: {r: 0.2, g: 0.2, b: 0.2, a: 1}
    - _Tint: {r: 0.9683059, g: 0.6080911, b: 0.17544493, a: 1}
